1 Subcluster and clean patient-specific myeloid cells – Afeyan, Nagler & Tu (2025): Spatial RCC analysis: Gene expression visualizations
…
Calculating cluster 11

Calculating cluster 12

Calculating cluster 13

Calculating cluster 14

Calculating cluster 15

mac_deg %>%
  group_by(cluster) %>%
  dplyr::slice(1:5)

# A tibble: 80 × 7
# Groups:   cluster [16]
   p_val avg_log2FC pct.1 pct.2 p_val_adj cluster gene    
   <dbl>      <dbl> <dbl> <dbl>     <dbl> <fct>   <chr>   
 1     0      1.40  0.824 0.44          0 0       IER3    
 2     0      1.20  0.872 0.49          0 0       C3      
 3     0      0.977 0.696 0.331         0 0       MTRNR2L8
 4     0      1.38  0.631 0.283         0 0       FN1     
 5     0      1.09  0.654 0.34          0 0       PLD4    
 6     0      1.39  0.78  0.269         0 1       IL32    
 7     0      1.20  0.64  0.192         0 1       CD3E    
 8     0      1.13  0.553 0.168         0 1       CD3D    
 9     0      0.613 0.642 0.287         0 1       CST7    
10     0      0.806 0.675 0.335         0 1       MTRNR2L8
# ℹ 70 more rows
…
