1 Subcluster NeoVax + CancerCell data – Afeyan, Nagler & Tu (2025): Spatial RCC analysis: RCTD Analysis
…
Calculating cluster B_3

Calculating cluster B_5

Calculating cluster B_7

Calculating cluster B_8

Calculating cluster B_9

b_markers %>%
  group_by(cluster) %>%
  slice_head(n = 3)

# A tibble: 30 × 7
# Groups:   cluster [10]
       p_val avg_log2FC pct.1 pct.2 p_val_adj cluster gene     
       <dbl>      <dbl> <dbl> <dbl>     <dbl> <fct>   <chr>    
 1 1.20e-233      4.79  0.576 0.019 5.80e-229 B_6     CD14     
 2 1.32e-208      5.71  0.271 0.004 6.41e-204 B_6     B3GNT5   
 3 1.62e-202      4.30  0.741 0.04  7.83e-198 B_6     MS4A6A   
 4 5.25e-151      0.496 0.974 0.955 2.55e-146 B_1     RPL32    
 5 8.55e-145      0.475 0.975 0.954 4.14e-140 B_1     RPL30    
 6 2.82e-132      0.445 0.978 0.974 1.36e-127 B_1     RPS12    
 7 0              1.61  0.827 0.302 0         B_0     BANK1    
 8 0              1.33  0.936 0.436 0         B_0     MS4A1    
 9 0              1.43  0.741 0.252 0         B_0     LINC00926
10 0              5.40  0.766 0.018 0         B_4     KLRD1    
# ℹ 20 more rows
…
b_subclusters@meta.data %>%
  dplyr::count(b_subcluster) %>%
  pivot_wider(names_from = b_subcluster, values_from = n)

# A tibble: 1 × 10
    B_0   B_1   B_2   B_3   B_4   B_5   B_6   B_7   B_8   B_9
  <int> <int> <int> <int> <int> <int> <int> <int> <int> <int>
1  2818  2637  1286   848   167   278    85    30    22    13

b_subclusters@meta.data %>%
  dplyr::count(patient, b_subcluster) %>%
  pivot_wider(names_from = b_subcluster, values_from = n)

# A tibble: 24 × 11
   patient     B_0   B_1   B_2   B_3   B_4   B_5   B_6   B_7   B_8   B_9
   <chr>     <int> <int> <int> <int> <int> <int> <int> <int> <int> <int>
 1 16097-101   101    84     1     4    16    11     8     1    NA    NA
 2 16097-102    89    99    15    17    13    14    10     1     1     1
 3 16097-104    49    64    20    30     8    29    25    NA     1    NA
 4 16097-105   125   150   696   191    15   141    12    NA     2    NA
 5 16097-106    48    52    32    32     1    19     6    NA    NA     1
 6 16097-107   173   159   291   340    NA     5     1    NA    16    NA
 7 16097-108   138   134     5     8    23    11     7    NA    NA     3
 8 16097-109    15    11     1    NA    NA     5    NA    NA    NA    NA
 9 16097-110    23    31     2     2    NA     3    NA    NA    NA     1
10 16097-111   115   111     1     1     4     6     1     3    NA     4
# ℹ 14 more rows
…
Calculating cluster Myeloid_6

Calculating cluster Myeloid_7

Calculating cluster Myeloid_10

Calculating cluster Myeloid_15

Calculating cluster Myeloid_5

myeloid_markers %>%
  group_by(cluster) %>%
  slice_head(n = 3)

# A tibble: 48 × 7
# Groups:   cluster [16]
   p_val avg_log2FC pct.1 pct.2 p_val_adj cluster    gene   
   <dbl>      <dbl> <dbl> <dbl>     <dbl> <fct>      <chr>  
 1     0       4.90 0.623 0.035         0 Myeloid_4  FCER1A 
 2     0       3.44 0.419 0.059         0 Myeloid_4  CLEC10A
 3     0       1.11 0.648 0.317         0 Myeloid_4  PLD4   
 4     0       3.44 0.706 0.099         0 Myeloid_2  MTSS1  
 5     0       2.99 0.722 0.119         0 Myeloid_2  LILRA5 
 6     0       1.56 0.835 0.233         0 Myeloid_2  FCN1   
 7     0       2.68 0.852 0.21          0 Myeloid_1  FCN1   
 8     0       4.37 0.836 0.204         0 Myeloid_1  S100A8 
 9     0       3.94 0.693 0.098         0 Myeloid_1  VCAN   
10     0       6.62 0.66  0.009         0 Myeloid_14 IDO1   
# ℹ 38 more rows
…
# A tibble: 1 × 16
  Myeloid_0 Myeloid_1 Myeloid_10 Myeloid_11 Myeloid_12 Myeloid_13 Myeloid_14
      <int>     <int>      <int>      <int>      <int>      <int>      <int>
1     23177     15727       1624       1578        959        866        674
# ℹ 9 more variables: Myeloid_15 <int>, Myeloid_2 <int>, Myeloid_3 <int>,
#   Myeloid_4 <int>, Myeloid_5 <int>, Myeloid_6 <int>, Myeloid_7 <int>,
#   Myeloid_8 <int>, Myeloid_9 <int>

myeloid_subclusters@meta.data %>%
  dplyr::count(patient, myeloid_subcluster) %>%
  pivot_wider(names_from = myeloid_subcluster, values_from = n)

# A tibble: 24 × 17
   patient   Myeloid_0 Myeloid_1 Myeloid_10 Myeloid_11 Myeloid_12 Myeloid_13
   <chr>         <int>     <int>      <int>      <int>      <int>      <int>
 1 16097-101       976      1481         23         82         67        161
 2 16097-102       494       550          7         63         48         59
 3 16097-104      9134      1870         15        532         84         60
 4 16097-105      3075       955          4         35         69         55
 5 16097-106      2386       448         NA         28         20         14
 6 16097-107       129       161          5         46         15          1
 7 16097-108      1842      1084         14        213        123        138
 8 16097-109       563       589         13         33         31         26
 9 16097-110       230       639         24         30         11         12
10 16097-111       148       249         12         14         13         28
# ℹ 14 more rows
# ℹ 10 more variables: Myeloid_14 <int>, Myeloid_15 <int>, Myeloid_2 <int>,
#   Myeloid_3 <int>, Myeloid_4 <int>, Myeloid_5 <int>, Myeloid_6 <int>,
#   Myeloid_7 <int>, Myeloid_8 <int>, Myeloid_9 <int>
…
Calculating cluster T_7

Calculating cluster T_11

Calculating cluster T_13

Calculating cluster T_12

Calculating cluster T_14

t_markers %>%
  group_by(cluster) %>%
  slice_head(n = 3)

# A tibble: 39 × 7
# Groups:   cluster [13]
   p_val avg_log2FC pct.1 pct.2 p_val_adj cluster gene  
   <dbl>      <dbl> <dbl> <dbl>     <dbl> <fct>   <chr> 
 1     0      4.56  0.704 0.05          0 T_3     GNLY  
 2     0      2.79  0.811 0.178         0 T_3     GZMH  
 3     0      4.06  0.649 0.046         0 T_3     KLRD1 
 4     0      1.52  0.935 0.462         0 T_0     GZMK  
 5     0      1.42  0.879 0.453         0 T_0     CD8A  
 6     0      1.70  0.655 0.247         0 T_0     LAG3  
 7     0      0.161 0.279 0.533         0 T_2     STK17B
 8     0      0.145 0.233 0.482         0 T_2     LCP2  
 9     0      0.127 0.219 0.463         0 T_2     TAPBP 
10     0      2.97  0.846 0.17          0 T_1     IL7R  
# ℹ 29 more rows
…
t_subclusters@meta.data %>%
  dplyr::count(t_subcluster) %>%
  pivot_wider(names_from = t_subcluster, values_from = n)

# A tibble: 1 × 15
    T_0   T_1  T_10  T_11  T_12  T_13  T_14   T_2   T_3   T_4   T_5   T_6   T_7
  <int> <int> <int> <int> <int> <int> <int> <int> <int> <int> <int> <int> <int>
1 68894 39710   932   869   270     2     2 18890 18101 15620 10742 10663  6646
# ℹ 2 more variables: T_8 <int>, T_9 <int>

t_subclusters@meta.data %>%
  dplyr::count(patient, t_subcluster) %>%
  pivot_wider(names_from = t_subcluster, values_from = n)

# A tibble: 24 × 16
   patient     T_0   T_1  T_10  T_11   T_2   T_3   T_4   T_5   T_6   T_7   T_8
   <chr>     <int> <int> <int> <int> <int> <int> <int> <int> <int> <int> <int>
 1 16097-101  1051  1166   110    13   435   711   501   286   143   157   162
 2 16097-102  3783  1360    42     6   695   353   406   180   400   388   153
 3 16097-104  5417  2013    72    41  1573   612   975   876   608   859  1307
 4 16097-105  7102   860    60    24  1535   412   426   181   848  1458  1436
 5 16097-106  7351  1299    35    12  2267   626   672   458   634   785   517
 6 16097-107  2724  1211    11    92   731   174   580   760   913   191    52
 7 16097-108  4993  2200   104    24   723  1495   900   259   734   323   129
 8 16097-109  1880   648    68     5   273   227   314   171   276   223    77
 9 16097-110  1902  1131    14     5   537   565   430   304   274   140    36
10 16097-111  1389  1478    25     4   569   513   716   278   185    74    30
# ℹ 14 more rows
# ℹ 4 more variables: T_9 <int>, T_13 <int>, T_12 <int>, T_14 <int>
…
nk_subclusters@meta.data %>%
  dplyr::count(nk_subcluster) %>%
  pivot_wider(names_from = nk_subcluster, values_from = n)

# A tibble: 1 × 9
   NK_0  NK_1  NK_2  NK_3  NK_4  NK_5  NK_6  NK_7  NK_8
  <int> <int> <int> <int> <int> <int> <int> <int> <int>
1 12851 12105 11000  8035  4045  3756   545   202   169

nk_subclusters@meta.data %>%
  dplyr::count(patient, nk_subcluster) %>%
  pivot_wider(names_from = nk_subcluster, values_from = n)

# A tibble: 24 × 10
   patient    NK_0  NK_1  NK_2  NK_3  NK_4  NK_5  NK_6  NK_7  NK_8
   <chr>     <int> <int> <int> <int> <int> <int> <int> <int> <int>
 1 16097-101  1099  1229   766   350   226   164    91     8    19
 2 16097-102   754   676   394   166   162    59    87     3     5
 3 16097-104   426   308   329   948   102   418    34     5     6
 4 16097-105   365   387   219   148    57    31    23     1    NA
 5 16097-106   562   477   372   337    84   110    11     2    11
 6 16097-107    55    71    89   150    33   102     2     7    NA
 7 16097-108  2035  1934  1461   476   396   218   116     7    23
 8 16097-109   345   218   242    62    48    30    29     2    10
 9 16097-110   107   174   206    97    47    48    19     1    NA
10 16097-111   399   584   428   170   198   137    52    13     6
# ℹ 14 more rows
…
Calculating cluster RCC_7

Calculating cluster RCC_5

Calculating cluster RCC_10

Calculating cluster RCC_8

Calculating cluster RCC_12

rcc_markers %>%
  group_by(cluster) %>%
  slice_head(n = 3)

# A tibble: 39 × 7
# Groups:   cluster [13]
       p_val avg_log2FC pct.1 pct.2 p_val_adj cluster gene     
       <dbl>      <dbl> <dbl> <dbl>     <dbl> <fct>   <chr>    
 1 3.00e- 37      0.255 0.134 0.362 1.45e- 32 RCC_1   PRDX3    
 2 1.26e- 32      0.124 0.232 0.488 6.11e- 28 RCC_1   NDUFB11  
 3 2.06e- 32      0.145 0.163 0.389 9.96e- 28 RCC_1   NHP2     
 4 3.19e- 24      0.306 0.362 0.655 1.55e- 19 RCC_4   MTRNR2L12
 5 4.28e- 21      0.164 0.208 0.481 2.07e- 16 RCC_4   HNRNPK   
 6 5.11e- 20      0.197 0.187 0.436 2.48e- 15 RCC_4   CYB5R3   
 7 5.78e-261      4.01  0.466 0.054 2.80e-256 RCC_2   C1QA     
 8 1.78e-235      4.08  0.431 0.051 8.63e-231 RCC_2   C1QB     
 9 5.43e-227      3.91  0.443 0.058 2.63e-222 RCC_2   C1QC     
10 5.41e- 59      2.31  0.551 0.169 2.62e- 54 RCC_6   GZMA     
# ℹ 29 more rows
…
rcc_subclusters@meta.data %>%
  dplyr::count(rcc_subcluster) %>%
  pivot_wider(names_from = rcc_subcluster, values_from = n)

# A tibble: 1 × 13
  RCC_0 RCC_1 RCC_10 RCC_11 RCC_12 RCC_2 RCC_3 RCC_4 RCC_5 RCC_6 RCC_7 RCC_8
  <int> <int>  <int>  <int>  <int> <int> <int> <int> <int> <int> <int> <int>
1  1501  1101     80     75     57   696   659   610   345   243   213   150
# ℹ 1 more variable: RCC_9 <int>

rcc_subclusters@meta.data %>%
  dplyr::count(patient, rcc_subcluster) %>%
  pivot_wider(names_from = rcc_subcluster, values_from = n)

# A tibble: 24 × 14
   patient   RCC_0 RCC_1 RCC_11 RCC_2 RCC_3 RCC_4 RCC_5 RCC_6 RCC_7 RCC_9 RCC_10
   <chr>     <int> <int>  <int> <int> <int> <int> <int> <int> <int> <int>  <int>
 1 16097-101   200    71      4    57   114    43     1    24     4     3     NA
 2 16097-102    21    24     NA    65    29    18     1     2    NA    NA     NA
 3 16097-104   123    49      5   102   181    94     3    64    13     5     NA
 4 16097-105   100    33      1   343    64     7     1    16    NA    NA     NA
 5 16097-106    46    14      1    34    33    14    NA     1    NA     1     NA
 6 16097-107    86    44      1    10    44    57     4     6    10    10     NA
 7 16097-108    56    19     NA    13    40    14     2    11    NA     2     NA
 8 16097-109    16     8     NA     7     9     4    NA    NA    NA     1     NA
 9 16097-110     8    10     NA    11    11     9    NA    NA    NA    NA     NA
10 16097-111    19     8     NA    NA    19    15    NA     5     1    NA     NA
# ℹ 14 more rows
# ℹ 2 more variables: RCC_12 <int>, RCC_8 <int>
…
Calculating cluster ENDO_0

Calculating cluster ENDO_8

Calculating cluster ENDO_7

Calculating cluster ENDO_4

Calculating cluster ENDO_5

endo_markers %>%
  group_by(cluster) %>%
  slice_head(n = 3)

# A tibble: 27 × 7
# Groups:   cluster [9]
      p_val avg_log2FC pct.1 pct.2 p_val_adj cluster gene    
      <dbl>      <dbl> <dbl> <dbl>     <dbl> <fct>   <chr>   
 1 0              6.07 0.701 0.014  0        ENDO_2  ACKR1   
 2 0              2.91 0.665 0.098  0        ENDO_2  CLU     
 3 0              3.12 0.639 0.073  0        ENDO_2  CPE     
 4 0              5.30 0.781 0.033  0        ENDO_6  SOST    
 5 0              4.47 0.814 0.114  0        ENDO_6  CRHBP   
 6 0              4.81 0.753 0.059  0        ENDO_6  EHD3    
 7 1.54e-36       2.07 0.242 0.109  7.44e-32 ENDO_1  RAC2    
 8 1.45e-32       1.95 0.249 0.119  7.05e-28 ENDO_1  CST7    
 9 3.73e-32       2.02 0.289 0.156  1.81e-27 ENDO_1  CCL5    
10 0              4.29 0.51  0.042  0        ENDO_3  SERPINE2
# ℹ 17 more rows
…
endo_subclusters@meta.data %>%
  dplyr::count(endo_subcluster) %>%
  pivot_wider(names_from = endo_subcluster, values_from = n)

# A tibble: 1 × 9
  ENDO_0 ENDO_1 ENDO_2 ENDO_3 ENDO_4 ENDO_5 ENDO_6 ENDO_7 ENDO_8
   <int>  <int>  <int>  <int>  <int>  <int>  <int>  <int>  <int>
1   1265    992    857    841    758    688    576    135    134

endo_subclusters@meta.data %>%
  dplyr::count(patient, endo_subcluster) %>%
  pivot_wider(names_from = endo_subcluster, values_from = n)

# A tibble: 24 × 10
   patient   ENDO_0 ENDO_1 ENDO_2 ENDO_3 ENDO_4 ENDO_5 ENDO_6 ENDO_7 ENDO_8
   <chr>      <int>  <int>  <int>  <int>  <int>  <int>  <int>  <int>  <int>
 1 16097-101    173    185    307    110    231    190     46     31     33
 2 16097-102     32     68     81     36     44     89     83      8     21
 3 16097-104     23     21     42     18     40     23      6     19      2
 4 16097-105    394    100     36    333     12     98    101     49     64
 5 16097-106     16     16     19      8     18     16      5      6      1
 6 16097-107     75     69     48     45     12     17     39     NA      2
 7 16097-108     95    105    143     41    142    108    156     11      7
 8 16097-109      9     20     35      7     15      6      8      2     NA
 9 16097-110     98     37     37     55     25      9     38      4      4
10 16097-111     33     45     20     13     24     16     11      1     NA
# ℹ 14 more rows
…
Calculating cluster FIBRO_0

Calculating cluster FIBRO_5

Calculating cluster FIBRO_1

Calculating cluster FIBRO_4

Calculating cluster FIBRO_6

fib_markers %>%
  group_by(cluster) %>%
  slice_head(n = 3)

# A tibble: 21 × 7
# Groups:   cluster [7]
       p_val avg_log2FC pct.1 pct.2 p_val_adj cluster gene    
       <dbl>      <dbl> <dbl> <dbl>     <dbl> <fct>   <chr>   
 1 2.50e-178      6.74  0.926 0.008 1.21e-173 FIBRO_3 TNXB    
 2 9.20e-177      8.23  0.893 0.005 4.46e-172 FIBRO_3 MFAP5   
 3 9.31e-153      5.65  0.926 0.032 4.51e-148 FIBRO_3 SERPINF1
 4 4.11e- 79      3.29  0.754 0.106 1.99e- 74 FIBRO_2 NPHS2   
 5 1.10e- 78      3.07  0.789 0.126 5.34e- 74 FIBRO_2 MME     
 6 9.76e- 76      3.09  0.713 0.087 4.73e- 71 FIBRO_2 PTPRO   
 7 2.38e- 15      2.02  0.354 0.149 1.15e- 10 FIBRO_0 GNB2L1  
 8 4.93e- 15      0.658 0.944 0.947 2.39e- 10 FIBRO_0 RPL41   
 9 2.30e- 14      2.35  0.32  0.126 1.12e-  9 FIBRO_0 ATP5E   
10 6.35e- 11      2.85  0.241 0.04  3.08e-  6 FIBRO_5 CD247   
# ℹ 11 more rows
…
fib_subclusters@meta.data %>%
  dplyr::count(fib_subcluster) %>%
  pivot_wider(names_from = fib_subcluster, values_from = n)

# A tibble: 1 × 7
  FIBRO_0 FIBRO_1 FIBRO_2 FIBRO_3 FIBRO_4 FIBRO_5 FIBRO_6
    <int>   <int>   <int>   <int>   <int>   <int>   <int>
1     319     173     171     122      64      54      52

fib_subclusters@meta.data %>%
  dplyr::count(patient, fib_subcluster) %>%
  pivot_wider(names_from = fib_subcluster, values_from = n)

# A tibble: 24 × 8
   patient   FIBRO_0 FIBRO_1 FIBRO_2 FIBRO_3 FIBRO_5 FIBRO_4 FIBRO_6
   <chr>       <int>   <int>   <int>   <int>   <int>   <int>   <int>
 1 16097-101      59      72      20      17      11      NA      NA
 2 16097-102       1      NA      77      68       7      49      NA
 3 16097-104       6       4       1      NA      NA      NA      NA
 4 16097-105      69      37      23      NA      NA      NA      NA
 5 16097-106       1       2       1      NA      NA      NA       1
 6 16097-107       2       4       2       1       2      NA      NA
 7 16097-108       2      26      14       2       2      NA      NA
 8 16097-109       7       9       2       1      NA      NA      NA
 9 16097-110      NA       1       6       6       1       7      NA
10 16097-111       8       4       3       1       2      NA       6
# ℹ 14 more rows
…
